{
  "swagger": "2.0",
  "info": {},
  "paths": {
    "/delete": {
      "post": {
        "description": "Удаление вакасии",
        "tags": [
          "vacancy"
        ],
        "operationId": "vacancyDeleteRequest",
        "parameters": [
          {
            "x-go-name": "Body",
            "name": "id",
            "in": "body",
            "required": true,
            "schema": {
              "$ref": "#/definitions/Id"
            }
          }
        ],
        "responses": {
          "200": {
            "$ref": "#/responses/vacancyDeleteResponse"
          }
        }
      }
    },
    "/get": {
      "post": {
        "description": "Поиск вакасии по id",
        "tags": [
          "vacancy"
        ],
        "operationId": "vacancyGetRequest",
        "parameters": [
          {
            "x-go-name": "Body",
            "name": "id",
            "in": "body",
            "required": true,
            "schema": {
              "$ref": "#/definitions/Id"
            }
          }
        ],
        "responses": {
          "200": {
            "$ref": "#/responses/vacancyGetResponse"
          }
        }
      }
    },
    "/list": {
      "get": {
        "description": "Список вакасий",
        "tags": [
          "vacancy"
        ],
        "operationId": "vacancyListRequest",
        "responses": {
          "200": {
            "$ref": "#/responses/vacancyListResponse"
          }
        }
      }
    },
    "/search": {
      "post": {
        "description": "Поиск вакасий",
        "tags": [
          "vacancy"
        ],
        "operationId": "vacancySearchRequest",
        "parameters": [
          {
            "example": "{\"query\": \"golang\"}",
            "x-go-name": "Body",
            "name": "body",
            "in": "body",
            "required": true,
            "schema": {
              "$ref": "#/definitions/Query"
            }
          }
        ],
        "responses": {
          "200": {
            "$ref": "#/responses/vacancySearchResponse"
          }
        }
      }
    }
  },
  "definitions": {
    "Id": {
      "type": "object",
      "properties": {
        "id": {
          "type": "integer",
          "format": "int64",
          "x-go-name": "Id"
        }
      },
      "x-go-package": "gitlab.com/mezigar/go-kata-course-2/module4/selenium"
    },
    "Query": {
      "type": "object",
      "properties": {
        "query": {
          "type": "string",
          "x-go-name": "Query"
        }
      },
      "x-go-package": "gitlab.com/mezigar/go-kata-course-2/module4/selenium"
    },
    "Vacancy": {
      "type": "object",
      "properties": {
        "@context": {
          "type": "string",
          "x-go-name": "Context"
        },
        "@type": {
          "type": "string",
          "x-go-name": "Type"
        },
        "HiringOrganization": {
          "type": "object",
          "properties": {
            "@type": {
              "type": "string",
              "x-go-name": "Type"
            },
            "name": {
              "type": "string",
              "x-go-name": "Name"
            },
            "sameAs": {
              "type": "string",
              "x-go-name": "SameAs"
            }
          }
        },
        "Identifier": {
          "type": "object",
          "properties": {
            "@type": {
              "type": "string",
              "x-go-name": "IdentifierType"
            },
            "name": {
              "type": "string",
              "x-go-name": "IdentifierName"
            },
            "value": {
              "type": "string",
              "x-go-name": "Value"
            }
          }
        },
        "JobLocation": {
          "type": "object",
          "properties": {
            "@type": {
              "type": "string",
              "x-go-name": "PlaceType"
            },
            "Address": {
              "type": "object",
              "properties": {
                "@type": {
                  "type": "string",
                  "x-go-name": "AdressType"
                },
                "AddressCountry": {
                  "type": "object",
                  "properties": {
                    "@type": {
                      "type": "string",
                      "x-go-name": "CountryType"
                    },
                    "name": {
                      "type": "string",
                      "x-go-name": "CountryName"
                    }
                  }
                },
                "addressLocality": {
                  "type": "string",
                  "x-go-name": "AddressLocality"
                },
                "streetAddress": {
                  "type": "string",
                  "x-go-name": "StreetAddress"
                }
              }
            }
          }
        },
        "datePosted": {
          "type": "string",
          "x-go-name": "DatePosted"
        },
        "description": {
          "type": "string",
          "x-go-name": "Description"
        },
        "employmentType": {
          "type": "string",
          "x-go-name": "EmploymentType"
        },
        "jobLocationType": {
          "type": "string",
          "x-go-name": "JobLocationType"
        },
        "title": {
          "type": "string",
          "x-go-name": "Title"
        }
      },
      "x-go-package": "gitlab.com/mezigar/go-kata-course-2/module4/selenium/model"
    }
  },
  "responses": {
    "vacancyDeleteResponse": {
      "description": "",
      "schema": {
        "$ref": "#/definitions/Vacancy"
      }
    },
    "vacancyGetResponse": {
      "description": "",
      "schema": {
        "$ref": "#/definitions/Vacancy"
      }
    },
    "vacancyListResponse": {
      "description": "",
      "schema": {
        "type": "array",
        "items": {
          "$ref": "#/definitions/Vacancy"
        }
      }
    },
    "vacancySearchResponse": {
      "description": "",
      "schema": {
        "type": "array",
        "items": {
          "$ref": "#/definitions/Vacancy"
        }
      }
    }
  }
}